{
    "name": "PlayerInputMap",
    "maps": [
        {
            "name": "Player",
            "id": "740aaa51-408e-4893-857a-3702bb8dd406",
            "actions": [
                {
                    "name": "ActFishing",
                    "type": "Button",
                    "id": "9c7e591d-6f7a-4075-aceb-26ac750a7fd4",
                    "expectedControlType": "Button",
                    "processors": "",
                    "interactions": "",
                    "initialStateCheck": false
                },
                {
                    "name": "Movement",
                    "type": "Button",
                    "id": "612d1c42-af87-47e8-a7fb-fcfeddfe2180",
                    "expectedControlType": "Button",
                    "processors": "",
                    "interactions": "",
                    "initialStateCheck": false
                }
            ],
            "bindings": [
                {
                    "name": "",
                    "id": "18883c36-63cf-4492-bf4a-b3e403f78ff6",
                    "path": "<Keyboard>/e",
                    "interactions": "",
                    "processors": "",
                    "groups": "Player",
                    "action": "ActFishing",
                    "isComposite": false,
                    "isPartOfComposite": false
                },
                {
                    "name": "",
                    "id": "32267452-177c-40d2-85f8-e33a9de20330",
                    "path": "",
                    "interactions": "",
                    "processors": "",
                    "groups": "",
                    "action": "Movement",
                    "isComposite": false,
                    "isPartOfComposite": false
                }
            ]
        },
        {
            "name": "Fishing",
            "id": "e3939c4c-2f68-4d60-a071-c32a73b6fa59",
            "actions": [
                {
                    "name": "RythymA",
                    "type": "Button",
                    "id": "b69c5fc8-fe40-4e75-b5a0-bc3bb2de65b3",
                    "expectedControlType": "Button",
                    "processors": "",
                    "interactions": "",
                    "initialStateCheck": false
                }
            ],
            "bindings": [
                {
                    "name": "",
                    "id": "3d4463cd-7160-47b7-9d08-e86f241cc851",
                    "path": "<Keyboard>/s",
                    "interactions": "",
                    "processors": "",
                    "groups": "",
                    "action": "RythymA",
                    "isComposite": false,
                    "isPartOfComposite": false
                }
            ]
        }
    ],
    "controlSchemes": [
        {
            "name": "Player",
            "bindingGroup": "Player",
            "devices": []
        }
    ]
}